%YAML 1.1
%TAG !u! tag:unity3d.com,2011:
--- !u!114 &11400000
MonoBehaviour:
  m_ObjectHideFlags: 0
  m_CorrespondingSourceObject: {fileID: 0}
  m_PrefabInstance: {fileID: 0}
  m_PrefabAsset: {fileID: 0}
  m_GameObject: {fileID: 0}
  m_Enabled: 1
  m_EditorHideFlags: 0
  m_Script: {fileID: 11500000, guid: 3ad70174b079c2f4ebc7931d3dd1af6f, type: 3}
  m_Name: DefaultPrefabObjects
  m_EditorClassIdentifier: 
  _prefabs:
  - {fileID: 6025863135669886054, guid: 52db64e292b5e754188c138b27832aa0, type: 3}
  - {fileID: 826573802111603218, guid: b09ecba02bb7e0f46b328a02348dd5a5, type: 3}
  - {fileID: -6180519345951166215, guid: 4edda592e8882b24b8feeacc3aa29495, type: 3}
  - {fileID: 1449786310600647041, guid: f0eb18bc21d3855489d82a79c82655a0, type: 3}
  - {fileID: 2724922096176129229, guid: bc7f191814ce7ff4ea09769f717baab5, type: 3}
  - {fileID: 217665852652917096, guid: 41359c1fae0357840b886a75b28deee6, type: 3}
  - {fileID: 611616139817875448, guid: bf5f023b4017a5e41a9815ec5745df3d, type: 3}
  - {fileID: 9117857247562382210, guid: b2991431a5f893e49937d01b6da44ff8, type: 3}
  - {fileID: 201277550, guid: d904f93bc171bb144ba33c5155282f6f, type: 3}
  - {fileID: 27039729695437543, guid: f820efff6a2871447b961fc755212ba3, type: 3}
